IP 地址,已发送,已接收,丢包率,平均延迟,下载速度 (MB/s)
45.64.23.17,4,4,0.00,43.05,21.81
45.64.23.16,4,4,0.00,42.87,20.70
199.15.76.35,4,4,0.00,60.52,20.19
45.64.23.18,4,4,0.00,41.75,19.87
199.15.76.35,4,4,0.00,60.28,18.75
2.58.65.189,4,4,0.00,76.01,18.62
45.64.23.22,4,4,0.00,42.01,15.58
45.64.23.25,4,4,0.00,43.56,14.42
211.22.184.186,4,4,0.00,56.53,9.33
156.59.125.36,4,4,0.00,43.69,3.70
